[gd_scene load_steps=17 format=2]

[ext_resource path="res://scripts/World.gd" type="Script" id=1]
[ext_resource path="res://assets/tiles/spritesheet_tiles.png" type="Texture" id=2]
[ext_resource path="res://assets/objects/Car.tscn" type="PackedScene" id=3]

[sub_resource type="ConvexPolygonShape2D" id=1]
points = PoolVector2Array( 0, 64, 128, 64, 128, 128, 0, 128 )

[sub_resource type="ConvexPolygonShape2D" id=2]
points = PoolVector2Array( 0, 0, 128, 0, 128, 64, 0, 64 )

[sub_resource type="ConvexPolygonShape2D" id=3]
points = PoolVector2Array( 128, 128, 64, 128, 79.9933, 78.0556, 128, 64 )

[sub_resource type="ConvexPolygonShape2D" id=4]
points = PoolVector2Array( 0, 0, 64, 0, 49.4377, 51.3837, 0, 64 )

[sub_resource type="ConvexPolygonShape2D" id=5]
points = PoolVector2Array( 128, 0, 128, 64, 77.2156, 48.5388, 64, 0 )

[sub_resource type="ConvexPolygonShape2D" id=6]
points = PoolVector2Array( 128, 0, 128, 128, 0, 128, 0, 64, 50.1322, 50.6603, 64, 0 )

[sub_resource type="ConvexPolygonShape2D" id=7]
points = PoolVector2Array( 0, 0, 64, 0, 76.5211, 49.1326, 128, 64, 128, 128, 0, 128 )

[sub_resource type="ConvexPolygonShape2D" id=8]
points = PoolVector2Array( 0, 0, 64, 0, 64, 128, 0, 128 )

[sub_resource type="ConvexPolygonShape2D" id=9]
points = PoolVector2Array( 128, 0, 128, 128, 64, 128, 64, 0 )

[sub_resource type="ConvexPolygonShape2D" id=10]
points = PoolVector2Array( 0, 0, 128, 0, 128, 128, 64, 128, 46.66, 75.1313, 0, 64 )

[sub_resource type="ConvexPolygonShape2D" id=11]
points = PoolVector2Array( 0, 0, 128, 0, 128, 64, 77.2156, 78.8733, 64, 128, 0, 128 )

[sub_resource type="ConvexPolygonShape2D" id=12]
points = PoolVector2Array( 0, 128, 0, 64, 46.66, 76.6511, 64, 128 )

[sub_resource type="TileSet" id=13]
0/name = "spritesheet_tiles.png 0"
0/texture = ExtResource( 2 )
0/tex_offset = Vector2( 0, 0 )
0/modulate = Color( 1, 1, 1, 1 )
0/region = Rect2( 0, 0, 778, 1948 )
0/tile_mode = 2
0/autotile/icon_coordinate = Vector2( 0, 0 )
0/autotile/tile_size = Vector2( 128, 128 )
0/autotile/spacing = 2
0/autotile/occluder_map = [  ]
0/autotile/navpoly_map = [  ]
0/autotile/priority_map = [  ]
0/autotile/z_index_map = [  ]
0/occluder_offset = Vector2( 0, 0 )
0/navigation_offset = Vector2( 0, 0 )
0/shape_offset = Vector2( 0, 0 )
0/shape_transform = Transform2D( 1, 0, 0, 1, 0, 0 )
0/shape_one_way = false
0/shape_one_way_margin = 0.0
0/shapes = [  ]
0/z_index = 0
1/name = "spritesheet_tiles.png 1"
1/texture = ExtResource( 2 )
1/tex_offset = Vector2( 0, 0 )
1/modulate = Color( 1, 1, 1, 1 )
1/region = Rect2( 780, 0, 1168, 1948 )
1/tile_mode = 1
1/autotile/bitmask_mode = 0
1/autotile/bitmask_flags = [ Vector2( 0, 0 ), 5, Vector2( 0, 1 ), 69, Vector2( 0, 3 ), 324, Vector2( 0, 4 ), 320, Vector2( 0, 5 ), 321, Vector2( 0, 6 ), 1, Vector2( 0, 7 ), 4, Vector2( 0, 8 ), 260, Vector2( 0, 9 ), 256, Vector2( 0, 10 ), 65, Vector2( 0, 11 ), 64, Vector2( 0, 12 ), 256, Vector2( 0, 13 ), 261, Vector2( 8, 0 ), 325 ]
1/autotile/icon_coordinate = Vector2( 0, 0 )
1/autotile/tile_size = Vector2( 128, 128 )
1/autotile/spacing = 2
1/autotile/occluder_map = [  ]
1/autotile/navpoly_map = [  ]
1/autotile/priority_map = [  ]
1/autotile/z_index_map = [  ]
1/occluder_offset = Vector2( 0, 0 )
1/navigation_offset = Vector2( 0, 0 )
1/shape_offset = Vector2( 0, 0 )
1/shape_transform = Transform2D( 1, 0, 0, 1, 0, 0 )
1/shape = SubResource( 1 )
1/shape_one_way = false
1/shape_one_way_margin = 1.0
1/shapes = [ {
"autotile_coord": Vector2( 0, 0 ),
"one_way": false,
"one_way_margin": 1.0,
"shape": SubResource( 1 ),
"shape_transform": Transform2D( 1, 0, 0, 1, 0, 0 )
}, {
"autotile_coord": Vector2( 0, 4 ),
"one_way": false,
"one_way_margin": 1.0,
"shape": SubResource( 2 ),
"shape_transform": Transform2D( 1, 0, 0, 1, 0, 0 )
}, {
"autotile_coord": Vector2( 0, 1 ),
"one_way": false,
"one_way_margin": 1.0,
"shape": SubResource( 3 ),
"shape_transform": Transform2D( 1, 0, 0, 1, 0, 0 )
}, {
"autotile_coord": Vector2( 0, 3 ),
"one_way": false,
"one_way_margin": 1.0,
"shape": SubResource( 4 ),
"shape_transform": Transform2D( 1, 0, 0, 1, 0, 0 )
}, {
"autotile_coord": Vector2( 0, 5 ),
"one_way": false,
"one_way_margin": 1.0,
"shape": SubResource( 5 ),
"shape_transform": Transform2D( 1, 0, 0, 1, 0, 0 )
}, {
"autotile_coord": Vector2( 0, 6 ),
"one_way": false,
"one_way_margin": 1.0,
"shape": SubResource( 6 ),
"shape_transform": Transform2D( 1, 0, 0, 1, 0, 0 )
}, {
"autotile_coord": Vector2( 0, 7 ),
"one_way": false,
"one_way_margin": 1.0,
"shape": SubResource( 7 ),
"shape_transform": Transform2D( 1, 0, 0, 1, 0, 0 )
}, {
"autotile_coord": Vector2( 0, 8 ),
"one_way": false,
"one_way_margin": 1.0,
"shape": SubResource( 8 ),
"shape_transform": Transform2D( 1, 0, 0, 1, 0, 0 )
}, {
"autotile_coord": Vector2( 0, 10 ),
"one_way": false,
"one_way_margin": 1.0,
"shape": SubResource( 9 ),
"shape_transform": Transform2D( 1, 0, 0, 1, 0, 0 )
}, {
"autotile_coord": Vector2( 0, 11 ),
"one_way": false,
"one_way_margin": 1.0,
"shape": SubResource( 10 ),
"shape_transform": Transform2D( 1, 0, 0, 1, 0, 0 )
}, {
"autotile_coord": Vector2( 0, 12 ),
"one_way": false,
"one_way_margin": 1.0,
"shape": SubResource( 11 ),
"shape_transform": Transform2D( 1, 0, 0, 1, 0, 0 )
}, {
"autotile_coord": Vector2( 0, 13 ),
"one_way": false,
"one_way_margin": 1.0,
"shape": SubResource( 12 ),
"shape_transform": Transform2D( 1, 0, 0, 1, 0, 0 )
} ]
1/z_index = 0
2/name = "spritesheet_tiles.png 2"
2/texture = ExtResource( 2 )
2/tex_offset = Vector2( 0, 0 )
2/modulate = Color( 1, 1, 1, 1 )
2/region = Rect2( 780, 1170, 128, 128 )
2/tile_mode = 0
2/occluder_offset = Vector2( 0, 0 )
2/navigation_offset = Vector2( 0, 0 )
2/shape_offset = Vector2( 0, 0 )
2/shape_transform = Transform2D( 1, 0, 0, 1, 0, 0 )
2/shape_one_way = false
2/shape_one_way_margin = 0.0
2/shapes = [  ]
2/z_index = 0

[node name="World" type="Node2D"]
script = ExtResource( 1 )

[node name="TileMap" type="TileMap" parent="."]
tile_set = SubResource( 13 )
cell_size = Vector2( 128, 128 )
format = 1
tile_data = PoolIntArray( -1, 2, 0, -65536, 2, 0, -65535, 2, 0, -65534, 2, 0, -65533, 2, 0, -65532, 2, 0, -65531, 2, 0, -65530, 2, 0, -65529, 2, 0, -65528, 2, 0, -65527, 2, 0, -65526, 2, 0, -65525, 2, 0, -65524, 2, 0, -65523, 2, 0, -65522, 2, 0, -65521, 2, 0, -65520, 2, 0, -65519, 2, 0, -65518, 2, 0, -65517, 2, 0, 65535, 2, 0, 0, 1, 786432, 1, 1, 262144, 2, 1, 262144, 3, 1, 262144, 4, 1, 262144, 5, 1, 262144, 6, 1, 262144, 7, 1, 262144, 8, 1, 262144, 9, 1, 262144, 10, 1, 262144, 11, 1, 262144, 12, 1, 262144, 13, 1, 262144, 14, 1, 262144, 15, 1, 262144, 16, 1, 262144, 17, 1, 262144, 18, 1, 720896, 19, 2, 0, 131071, 2, 0, 65536, 1, 524288, 65537, 1, 8, 65538, 1, 8, 65539, 1, 8, 65540, 1, 8, 65541, 1, 8, 65542, 1, 8, 65543, 1, 8, 65544, 1, 8, 65545, 1, 8, 65546, 1, 8, 65547, 1, 8, 65548, 1, 8, 65549, 1, 8, 65550, 1, 8, 65551, 1, 8, 65552, 1, 8, 65553, 1, 8, 65554, 1, 655360, 65555, 2, 0, 196607, 2, 0, 131072, 1, 524288, 131073, 1, 8, 131074, 1, 65536, 131075, 1, 0, 131076, 1, 0, 131077, 1, 0, 131078, 1, 851968, 131079, 1, 65536, 131080, 1, 0, 131081, 1, 0, 131082, 1, 0, 131083, 1, 0, 131084, 1, 0, 131085, 1, 0, 131086, 1, 0, 131087, 1, 0, 131088, 1, 851968, 131089, 1, 8, 131090, 1, 655360, 131091, 2, 0, 262143, 2, 0, 196608, 1, 524288, 196609, 1, 8, 196610, 1, 655360, 196611, 2, 0, 196612, 2, 0, 196613, 2, 0, 196614, 1, 524288, 196615, 1, 655360, 196616, 2, 0, 196617, 2, 0, 196618, 2, 0, 196619, 2, 0, 196620, 2, 0, 196621, 2, 0, 196622, 2, 0, 196623, 2, 0, 196624, 1, 524288, 196625, 1, 8, 196626, 1, 655360, 196627, 2, 0, 327679, 2, 0, 262144, 1, 524288, 262145, 1, 8, 262146, 1, 655360, 262147, 2, 0, 262148, 2, 0, 262149, 2, 0, 262150, 1, 524288, 262151, 1, 655360, 262152, 2, 0, 262153, 2, 0, 262154, 2, 0, 262155, 2, 0, 262156, 2, 0, 262157, 2, 0, 262158, 2, 0, 262159, 2, 0, 262160, 1, 524288, 262161, 1, 8, 262162, 1, 655360, 262163, 2, 0, 393215, 2, 0, 327680, 1, 524288, 327681, 1, 8, 327682, 1, 655360, 327683, 2, 0, 327684, 2, 0, 327685, 2, 0, 327686, 1, 524288, 327687, 1, 655360, 327688, 2, 0, 327689, 2, 0, 327690, 2, 0, 327691, 2, 0, 327692, 2, 0, 327693, 1, 786432, 327694, 1, 262144, 327695, 1, 262144, 327696, 1, 196608, 327697, 1, 8, 327698, 1, 655360, 327699, 2, 0, 458751, 2, 0, 393216, 1, 524288, 393217, 1, 8, 393218, 1, 655360, 393219, 2, 0, 393220, 2, 0, 393221, 2, 0, 393222, 1, 524288, 393223, 1, 327680, 393224, 1, 262144, 393225, 1, 262144, 393226, 1, 262144, 393227, 1, 262144, 393228, 1, 262144, 393229, 1, 196608, 393230, 1, 8, 393231, 1, 8, 393232, 1, 8, 393233, 1, 8, 393234, 1, 655360, 393235, 2, 0, 524287, 2, 0, 458752, 1, 524288, 458753, 1, 8, 458754, 1, 655360, 458755, 2, 0, 458756, 2, 0, 458757, 2, 0, 458758, 1, 458752, 458759, 1, 0, 458760, 1, 0, 458761, 1, 0, 458762, 1, 0, 458763, 1, 0, 458764, 1, 851968, 458765, 1, 8, 458766, 1, 8, 458767, 1, 65536, 458768, 1, 0, 458769, 1, 0, 458770, 1, 393216, 458771, 2, 0, 589823, 2, 0, 524288, 1, 524288, 524289, 1, 8, 524290, 1, 655360, 524291, 2, 0, 524292, 2, 0, 524293, 2, 0, 524294, 2, 0, 524295, 2, 0, 524296, 2, 0, 524297, 2, 0, 524298, 2, 0, 524299, 2, 0, 524300, 1, 524288, 524301, 1, 8, 524302, 1, 8, 524303, 1, 655360, 524304, 2, 0, 524305, 2, 0, 524306, 2, 0, 524307, 2, 0, 655359, 2, 0, 589824, 1, 524288, 589825, 1, 8, 589826, 1, 327680, 589827, 1, 262144, 589828, 1, 262144, 589829, 1, 262144, 589830, 1, 262144, 589831, 1, 262144, 589832, 1, 262144, 589833, 1, 262144, 589834, 1, 262144, 589835, 1, 262144, 589836, 1, 196608, 589837, 1, 8, 589838, 1, 8, 589839, 1, 327680, 589840, 1, 262144, 589841, 1, 262144, 589842, 1, 720896, 589843, 2, 0, 720895, 2, 0, 655360, 1, 524288, 655361, 1, 8, 655362, 1, 8, 655363, 1, 8, 655364, 1, 8, 655365, 1, 8, 655366, 1, 8, 655367, 1, 8, 655368, 1, 8, 655369, 1, 8, 655370, 1, 8, 655371, 1, 8, 655372, 1, 8, 655373, 1, 8, 655374, 1, 8, 655375, 1, 8, 655376, 1, 8, 655377, 1, 8, 655378, 1, 655360, 655379, 2, 0, 786431, 2, 0, 720896, 1, 524288, 720897, 1, 8, 720898, 1, 8, 720899, 1, 8, 720900, 1, 8, 720901, 1, 8, 720902, 1, 8, 720903, 1, 8, 720904, 1, 8, 720905, 1, 8, 720906, 1, 8, 720907, 1, 8, 720908, 1, 8, 720909, 1, 8, 720910, 1, 8, 720911, 1, 8, 720912, 1, 8, 720913, 1, 8, 720914, 1, 655360, 720915, 2, 0, 851967, 2, 0, 786432, 1, 524288, 786433, 1, 8, 786434, 1, 8, 786435, 1, 8, 786436, 1, 8, 786437, 1, 8, 786438, 1, 8, 786439, 1, 8, 786440, 1, 8, 786441, 1, 8, 786442, 1, 8, 786443, 1, 8, 786444, 1, 8, 786445, 1, 8, 786446, 1, 8, 786447, 1, 8, 786448, 1, 8, 786449, 1, 8, 786450, 1, 655360, 786451, 2, 0, 917503, 2, 0, 851968, 1, 524288, 851969, 1, 8, 851970, 1, 8, 851971, 1, 8, 851972, 1, 8, 851973, 1, 8, 851974, 1, 8, 851975, 1, 8, 851976, 1, 8, 851977, 1, 8, 851978, 1, 8, 851979, 1, 8, 851980, 1, 8, 851981, 1, 8, 851982, 1, 8, 851983, 1, 8, 851984, 1, 8, 851985, 1, 8, 851986, 1, 655360, 851987, 2, 0, 983039, 2, 0, 917504, 1, 524288, 917505, 1, 8, 917506, 1, 8, 917507, 1, 8, 917508, 1, 8, 917509, 1, 8, 917510, 1, 8, 917511, 1, 8, 917512, 1, 8, 917513, 1, 8, 917514, 1, 8, 917515, 1, 8, 917516, 1, 8, 917517, 1, 8, 917518, 1, 8, 917519, 1, 8, 917520, 1, 8, 917521, 1, 8, 917522, 1, 655360, 917523, 2, 0, 1048575, 2, 0, 983040, 1, 524288, 983041, 1, 8, 983042, 1, 8, 983043, 1, 8, 983044, 1, 8, 983045, 1, 8, 983046, 1, 8, 983047, 1, 8, 983048, 1, 8, 983049, 1, 8, 983050, 1, 8, 983051, 1, 8, 983052, 1, 8, 983053, 1, 8, 983054, 1, 8, 983055, 1, 8, 983056, 1, 8, 983057, 1, 8, 983058, 1, 655360, 983059, 2, 0, 1114111, 2, 0, 1048576, 1, 524288, 1048577, 1, 8, 1048578, 1, 8, 1048579, 1, 8, 1048580, 1, 8, 1048581, 1, 8, 1048582, 1, 8, 1048583, 1, 8, 1048584, 1, 8, 1048585, 1, 8, 1048586, 1, 8, 1048587, 1, 8, 1048588, 1, 8, 1048589, 1, 8, 1048590, 1, 8, 1048591, 1, 8, 1048592, 1, 8, 1048593, 1, 8, 1048594, 1, 655360, 1048595, 2, 0, 1179647, 2, 0, 1114112, 1, 524288, 1114113, 1, 8, 1114114, 1, 8, 1114115, 1, 8, 1114116, 1, 8, 1114117, 1, 8, 1114118, 1, 8, 1114119, 1, 8, 1114120, 1, 8, 1114121, 1, 8, 1114122, 1, 8, 1114123, 1, 8, 1114124, 1, 8, 1114125, 1, 8, 1114126, 1, 8, 1114127, 1, 8, 1114128, 1, 8, 1114129, 1, 8, 1114130, 1, 655360, 1114131, 2, 0, 1245183, 2, 0, 1179648, 1, 524288, 1179649, 1, 8, 1179650, 1, 8, 1179651, 1, 8, 1179652, 1, 8, 1179653, 1, 8, 1179654, 1, 8, 1179655, 1, 8, 1179656, 1, 8, 1179657, 1, 8, 1179658, 1, 8, 1179659, 1, 8, 1179660, 1, 8, 1179661, 1, 8, 1179662, 1, 8, 1179663, 1, 8, 1179664, 1, 8, 1179665, 1, 8, 1179666, 1, 655360, 1179667, 2, 0, 1310719, 2, 0, 1245184, 1, 524288, 1245185, 1, 8, 1245186, 1, 8, 1245187, 1, 8, 1245188, 1, 8, 1245189, 1, 8, 1245190, 1, 8, 1245191, 1, 8, 1245192, 1, 8, 1245193, 1, 8, 1245194, 1, 8, 1245195, 1, 8, 1245196, 1, 8, 1245197, 1, 8, 1245198, 1, 8, 1245199, 1, 8, 1245200, 1, 8, 1245201, 1, 8, 1245202, 1, 655360, 1245203, 2, 0, 1376255, 2, 0, 1310720, 1, 458752, 1310721, 1, 0, 1310722, 1, 0, 1310723, 1, 0, 1310724, 1, 0, 1310725, 1, 0, 1310726, 1, 0, 1310727, 1, 0, 1310728, 1, 0, 1310729, 1, 0, 1310730, 1, 0, 1310731, 1, 0, 1310732, 1, 0, 1310733, 1, 0, 1310734, 1, 0, 1310735, 1, 0, 1310736, 1, 0, 1310737, 1, 0, 1310738, 1, 393216, 1310739, 2, 0, 1441791, 2, 0, 1376256, 2, 0, 1376257, 2, 0, 1376258, 2, 0, 1376259, 2, 0, 1376260, 2, 0, 1376261, 2, 0, 1376262, 2, 0, 1376263, 2, 0, 1376264, 2, 0, 1376265, 2, 0, 1376266, 2, 0, 1376267, 2, 0, 1376268, 2, 0, 1376269, 2, 0, 1376270, 2, 0, 1376271, 2, 0, 1376272, 2, 0, 1376273, 2, 0, 1376274, 2, 0, 1376275, 2, 0 )

[node name="Car" parent="." instance=ExtResource( 3 )]
position = Vector2( 1100.95, 2008.65 )
max_speed_reverse = 8
